{
  "project_info": {
    "project_number": "958779179812",
    "project_id": "mushinrooms",
    "storage_bucket": "mushinrooms.appspot.com"
  },
  "client": [
    {
      "client_info": {
        "mobilesdk_app_id": "1:958779179812:android:7c354b339733034d91e9b1",
        "android_client_info": {
          "package_name": "com.cice.mushinrooms"
        }
      },
      "oauth_client": [
        {
          "client_id": "958779179812-imm6ijk11qjr3vir77s772tampp6agg3.apps.googleusercontent.com",
          "client_type": 1,
          "android_info": {
            "package_name": "com.cice.mushinrooms",
            "certificate_hash": "b964dc3d2d69c83998fc86b1a5fc2b614dbbcfbf"
          }
        },
        {
          "client_id": "958779179812-h2mehc0vdpbq4mpm87bdna3l5r1p5bqc.apps.googleusercontent.com",
          "client_type": 3
        }
      ],
      "api_key": [
        {
          "current_key": "AIzaSyDnOjU1uUlEOPmZ5jLmUHTb43tSqKEJ61I"
        }
      ],
      "services": {
        "appinvite_service": {
          "other_platform_oauth_client": [
            {
              "client_id": "958779179812-h2mehc0vdpbq4mpm87bdna3l5r1p5bqc.apps.googleusercontent.com",
              "client_type": 3
            }
          ]
        }
      }
    }
  ],
  "configuration_version": "1"
}